<svg class="MuiSvgIcon-root MuiSvgIcon-fontSizeInherit css-1cw4hi4" focusable="false" aria-hidden="true" viewBox="0 0 24 24" data-testid="InfoOutlinedIcon">
  <path d="M11,9H13V7H11M12,20C7.59,20 4,16.41 4,12C4,7.59 7.59,4 12,4C16.41,4 20,7.59 20, 12C20,16.41 16.41,20 12,20M12,2A10,10 0 0,0 2,12A10,10 0 0,0 12,22A10,10 0 0,0 22,12A10, 10 0 0,0 12,2M11,17H13V11H11V17Z"></path>
</svg>
